{
  "channels": [
    {
      "name": "spikebotbb",
      "lang": "en",
      "sub_only": false
    },
    {
      "name": "poncho_dlv",
      "lang": "fr",
      "sub_only": false
    },
    {
      "name": "elyod",
      "lang": "en",
      "sub_only": false
    },
    {
      "name": "kfoged",
      "lang": "en",
      "sub_only": false
    },
    {
      "name": "yaquestay",
      "lang": "en",
      "sub_only": false
    },
    {
      "name": "bigadin",
      "lang": "fr",
      "sub_only": false
    },
    {
      "name": "dimmy_gee",
      "lang": "en",
      "sub_only": false
    },
    {
      "name": "moreplovac",
      "lang": "en",
      "sub_only": false
    },
    {
      "name": "poglar_bb",
      "lang": "en",
      "sub_only": false
    }
  ]
}